module RetestCRUD/public

go 1.19

replace RetestCRUD/adapter => ./../adapter

require (
	RetestCRUD/adapter v0.0.0-00010101000000-000000000000
	github.com/gin-gonic/gin v1.8.1
	github.com/swaggo/files v0.0.0-20220728132757-551d4a08d97a
	github.com/swaggo/gin-swagger v1.5.3
	github.com/swaggo/swag v1.8.8
	gitlab.com/golibs-starter/golib v0.12.3
	gitlab.com/golibs-starter/golib-cache v0.2.2
	gitlab.com/golibs-starter/golib-data v0.9.3
	gitlab.com/golibs-starter/golib-gin v0.6.1
	gitlab.com/golibs-starter/golib-test v0.5.0
	go.uber.org/fx v1.18.2
)

require (
	github.com/KyleBanks/depth v1.2.1 // indirect
	github.com/PuerkitoBio/purell v1.1.1 // indirect
	github.com/PuerkitoBio/urlesc v0.0.0-20170810143723-de5bf2ad4578 // indirect
	github.com/XiaoMi/pegasus-go-client v0.0.0-20210427083443-f3b6b08bc4c2 // indirect
	github.com/beorn7/perks v1.0.1 // indirect
	github.com/bradfitz/gomemcache v0.0.0-20190913173617-a41fca850d0b // indirect
	github.com/cenkalti/backoff/v4 v4.1.0 // indirect
	github.com/cespare/xxhash/v2 v2.1.2 // indirect
	github.com/davecgh/go-spew v1.1.1 // indirect
	github.com/dgryski/go-rendezvous v0.0.0-20200823014737-9f7001d12a5f // indirect
	github.com/eko/gocache/v2 v2.2.0 // indirect
	github.com/emirpasic/gods v1.18.1 // indirect
	github.com/fsnotify/fsnotify v1.6.0 // indirect
	github.com/gin-contrib/sse v0.1.0 // indirect
	github.com/go-openapi/jsonpointer v0.19.5 // indirect
	github.com/go-openapi/jsonreference v0.19.6 // indirect
	github.com/go-openapi/spec v0.20.4 // indirect
	github.com/go-openapi/swag v0.19.15 // indirect
	github.com/go-playground/locales v0.14.0 // indirect
	github.com/go-playground/universal-translator v0.18.0 // indirect
	github.com/go-playground/validator/v10 v10.11.1 // indirect
	github.com/go-redis/redis/v8 v8.11.5 // indirect
	github.com/goccy/go-json v0.9.7 // indirect
	github.com/golang/protobuf v1.5.2 // indirect
	github.com/google/uuid v1.3.0 // indirect
	github.com/hashicorp/hcl v1.0.0 // indirect
	github.com/jinzhu/inflection v1.0.0 // indirect
	github.com/jinzhu/now v1.1.5 // indirect
	github.com/josharian/intern v1.0.0 // indirect
	github.com/json-iterator/go v1.1.12 // indirect
	github.com/konsorten/go-windows-terminal-sequences v1.0.3 // indirect
	github.com/leodido/go-urn v1.2.1 // indirect
	github.com/magiconair/properties v1.8.6 // indirect
	github.com/mailru/easyjson v0.7.6 // indirect
	github.com/mattn/go-isatty v0.0.14 // indirect
	github.com/matttproud/golang_protobuf_extensions v1.0.1 // indirect
	github.com/mitchellh/mapstructure v1.5.0 // indirect
	github.com/modern-go/concurrent v0.0.0-20180306012644-bacd9c7ef1dd // indirect
	github.com/modern-go/reflect2 v1.0.2 // indirect
	github.com/patrickmn/go-cache v2.1.0+incompatible // indirect
	github.com/pegasus-kv/thrift v0.13.0 // indirect
	github.com/pelletier/go-toml v1.9.5 // indirect
	github.com/pelletier/go-toml/v2 v2.0.6 // indirect
	github.com/pkg/errors v0.9.1 // indirect
	github.com/pmezard/go-difflib v1.0.0 // indirect
	github.com/prometheus/client_golang v1.12.0 // indirect
	github.com/prometheus/client_model v0.2.0 // indirect
	github.com/prometheus/common v0.32.1 // indirect
	github.com/prometheus/procfs v0.7.3 // indirect
	github.com/sirupsen/logrus v1.6.0 // indirect
	github.com/spf13/afero v1.9.3 // indirect
	github.com/spf13/cast v1.5.0 // indirect
	github.com/spf13/jwalterweatherman v1.1.0 // indirect
	github.com/spf13/pflag v1.0.5 // indirect
	github.com/spf13/viper v1.14.0 // indirect
	github.com/stretchr/testify v1.8.1 // indirect
	github.com/subosito/gotenv v1.4.1 // indirect
	github.com/tidwall/gjson v1.14.4 // indirect
	github.com/tidwall/match v1.1.1 // indirect
	github.com/tidwall/pretty v1.2.1 // indirect
	github.com/ugorji/go/codec v1.2.7 // indirect
	github.com/zenthangplus/defaults v1.6.2-beta // indirect
	go.uber.org/atomic v1.10.0 // indirect
	go.uber.org/dig v1.15.0 // indirect
	go.uber.org/multierr v1.8.0 // indirect
	go.uber.org/zap v1.23.0 // indirect
	golang.org/x/crypto v0.3.0 // indirect
	golang.org/x/net v0.2.0 // indirect
	golang.org/x/sync v0.1.0 // indirect
	golang.org/x/sys v0.2.0 // indirect
	golang.org/x/text v0.4.0 // indirect
	golang.org/x/tools v0.1.12 // indirect
	google.golang.org/protobuf v1.28.1 // indirect
	gopkg.in/ini.v1 v1.67.0 // indirect
	gopkg.in/natefinch/lumberjack.v2 v2.0.0 // indirect
	gopkg.in/tomb.v2 v2.0.0-20161208151619-d5d1b5820637 // indirect
	gopkg.in/yaml.v2 v2.4.0 // indirect
	gopkg.in/yaml.v3 v3.0.1 // indirect
	gorm.io/gorm v1.24.2 // indirect
	k8s.io/apimachinery v0.0.0-20191123233150-4c4803ed55e3 // indirect
)
